maquina_de_estados.vcd
$comment
Copyright (C) 1991-2010 Altera Corporation
Your use of Altera Corporation's design tools, logic functions 
and other software and tools, and its AMPP partner logic 
functions, and any output files from any of the foregoing 
(including device programming or simulation files), and any 
associated documentation or information are expressly subject 
to the terms and conditions of the Altera Program License 
Subscription Agreement, Altera MegaCore Function License 
Agreement, or other applicable license agreement, including, 
without limitation, that your use is for the sole purpose of 
programming logic devices manufactured by Altera and sold by 
Altera or its authorized distributors.  Please refer to the 
applicable agreement for further details.
$end

$date 
  11/26/2025 22:49:17 
$end
$version 
 QUARTUS_VCD_EXPORT 1.0 
$end
$timescale
  1 ps
$end
$scope module maquina_de_estados $end
$var reg 1 ! CLOCK_27 $end
$var reg 1 " KEY_RESET $end
$var reg 1 # SENSOR_IN $end
$var reg 1 $ MOTOR_OUT $end
$var reg 7 % HEX0[6:0] $end
$var reg 7 & HEX1[6:0] $end
$upscope $end
$enddefinitions $end
#0
$dumpvars
0!
0"
0#
0$
b1000000 %
b1000000 &
$end
#5000
1!
b100100 &
#10000
0!
1"
#15000
1!
#20000
0!
#25000
1!
#30000
0!
#35000
1!
#40000
0!
#45000
1!
#50000
0!
#55000
1!
#60000
0!
#65000
1!
#70000
0!
#75000
1!
#80000
0!
#85000
1!
#90000
0!
#95000
1!
#100000
0!
#105000
1!
#110000
0!
#115000
1!
#120000
0!
#125000
1!
#130000
0!
#135000
1!
#140000
0!
#145000
1!
#150000
0!
#155000
1!
#160000
0!
#165000
1!
#170000
0!
#175000
1!
#180000
0!
#185000
1!
#190000
0!
#195000
1!
#200000
0!
#205000
1!
#210000
0!
#215000
1!
#220000
0!
#225000
1!
#230000
0!
#235000
1!
#240000
0!
#245000
1!
#250000
0!
1#
#255000
1!
#260000
0!
#265000
1!
#270000
0!
#275000
1!
1$
#280000
0!
#285000
1!
#290000
0!
#295000
1!
#300000
0!
#305000
1!
#310000
0!
#315000
1!
#320000
0!
#325000
1!
#330000
0!
#335000
1!
#340000
0!
#345000
1!
#350000
0!
#355000
1!
#360000
0!
#365000
1!
#370000
0!
#375000
1!
#380000
0!
#385000
1!
#390000
0!
#395000
1!
#400000
0!
#405000
1!
#410000
0!
#415000
1!
#420000
0!
#425000
1!
#430000
0!
#435000
1!
#440000
0!
#445000
1!
#450000
0!
#455000
1!
#460000
0!
#465000
1!
#470000
0!
#475000
1!
#480000
0!
#485000
1!
#490000
0!
#495000
1!
#500000
0!
0#
#505000
1!
#510000
0!
#515000
1!
#520000
0!
#525000
1!
#530000
0!
#535000
1!
b10000 %
b1111001 &
#540000
0!
#545000
1!
#550000
0!
#555000
1!
#560000
0!
#565000
1!
#570000
0!
#575000
1!
b0 %
#580000
0!
#585000
1!
#590000
0!
#595000
1!
#600000
0!
#605000
1!
#610000
0!
#615000
1!
b1111000 %
#620000
0!
#625000
1!
#630000
0!
#635000
1!
#640000
0!
#645000
1!
#650000
0!
#655000
1!
b10 %
#660000
0!
#665000
1!
#670000
0!
#675000
1!
#680000
0!
#685000
1!
#690000
0!
#695000
1!
b10010 %
#700000
0!
#705000
1!
#710000
0!
#715000
1!
#720000
0!
#725000
1!
#730000
0!
#735000
1!
b11001 %
#740000
0!
#745000
1!
#750000
0!
#755000
1!
#760000
0!
#765000
1!
#770000
0!
#775000
1!
b110000 %
#780000
0!
#785000
1!
#790000
0!
#795000
1!
#800000
0!
#805000
1!
#810000
0!
#815000
1!
b100100 %
#820000
0!
#825000
1!
#830000
0!
#835000
1!
#840000
0!
#845000
1!
#850000
0!
#855000
1!
b1111001 %
#860000
0!
#865000
1!
#870000
0!
#875000
1!
#880000
0!
#885000
1!
#890000
0!
#895000
1!
b1000000 %
#900000
0!
#905000
1!
#910000
0!
#915000
1!
#920000
0!
#925000
1!
#930000
0!
#935000
1!
b10000 %
b1000000 &
#940000
0!
#945000
1!
#950000
0!
#955000
1!
#960000
0!
#965000
1!
#970000
0!
#975000
1!
b0 %
#980000
0!
#985000
1!
#990000
0!
#995000
1!
#1000000
0!
#1005000
1!
#1010000
0!
#1015000
1!
b1111000 %
#1020000
0!
#1025000
1!
#1030000
0!
#1035000
1!
#1040000
0!
#1045000
1!
#1050000
0!
#1055000
1!
b10 %
#1060000
0!
#1065000
1!
#1070000
0!
#1075000
1!
#1080000
0!
#1085000
1!
#1090000
0!
#1095000
1!
b10010 %
#1100000
0!
#1105000
1!
#1110000
0!
#1115000
1!
#1120000
0!
#1125000
1!
#1130000
0!
#1135000
1!
b11001 %
#1140000
0!
#1145000
1!
#1150000
0!
#1155000
1!
#1160000
0!
#1165000
1!
#1170000
0!
#1175000
1!
b110000 %
#1180000
0!
#1185000
1!
#1190000
0!
#1195000
1!
#1200000
0!
#1205000
1!
#1210000
0!
#1215000
1!
b100100 %
#1220000
0!
#1225000
1!
#1230000
0!
#1235000
1!
#1240000
0!
#1245000
1!
#1250000
0!
#1255000
1!
b1111001 %
#1260000
0!
#1265000
1!
#1270000
0!
#1275000
1!
#1280000
0!
#1285000
1!
#1290000
0!
#1295000
1!
b1000000 %
#1300000
0!
#1305000
1!
0$
#1310000
0!
#1315000
1!
b100100 &
