maquina_de_estados.vcd
$comment
Copyright (C) 1991-2010 Altera Corporation
Your use of Altera Corporation's design tools, logic functions 
and other software and tools, and its AMPP partner logic 
functions, and any output files from any of the foregoing 
(including device programming or simulation files), and any 
associated documentation or information are expressly subject 
to the terms and conditions of the Altera Program License 
Subscription Agreement, Altera MegaCore Function License 
Agreement, or other applicable license agreement, including, 
without limitation, that your use is for the sole purpose of 
programming logic devices manufactured by Altera and sold by 
Altera or its authorized distributors.  Please refer to the 
applicable agreement for further details.
$end

$date 
  12/03/2025 17:07:16 
$end
$version 
 QUARTUS_VCD_EXPORT 1.0 
$end
$timescale
  1 ps
$end
$scope module maquina_de_estados $end
$var reg 1 ! CLOCK_27 $end
$var reg 1 " KEY_RESET $end
$var reg 1 # SENSOR_IN $end
$var reg 1 $ MOTOR_OUT $end
$var reg 7 % HEX0[6:0] $end
$var reg 7 & HEX1[6:0] $end
$var reg 4 ' digito_dezena[3:0] $end
$var reg 4 ( digito_unidade[3:0] $end
$upscope $end
$enddefinitions $end
#0
$dumpvars
0!
0"
0#
0$
b1000000 %
b1000000 &
bX0 '
b0X (
$end
#5000
1!
b100100 &
bX0 '
b0X (
#10000
0!
bX0 '
b0X (
#15000
1!
bX0 '
b0X (
#20000
0!
1"
bX0 '
b0X (
#25000
1!
bX0 '
b0X (
#30000
0!
bX0 '
b0X (
#35000
1!
bX0 '
b0X (
#40000
0!
bX0 '
b0X (
#45000
1!
bX0 '
b0X (
#50000
0!
bX0 '
b0X (
#55000
1!
bX0 '
b0X (
#60000
0!
bX0 '
b0X (
#65000
1!
bX0 '
b0X (
#70000
0!
bX0 '
b0X (
#75000
1!
bX0 '
b0X (
#80000
0!
bX0 '
b0X (
#85000
1!
bX0 '
b0X (
#90000
0!
bX0 '
b0X (
#95000
1!
bX0 '
b0X (
#100000
0!
1#
bX0 '
b0X (
#105000
1!
bX0 '
b0X (
#110000
0!
bX0 '
b0X (
#115000
1!
bX0 '
b0X (
#120000
0!
bX0 '
b0X (
#125000
1!
1$
bX0 '
b0X (
#130000
0!
bX0 '
b0X (
#135000
1!
bX0 '
b0X (
#140000
0!
bX0 '
b0X (
#145000
1!
bX0 '
b0X (
#150000
0!
bX0 '
b0X (
#155000
1!
bX0 '
b0X (
#160000
0!
bX0 '
b0X (
#165000
1!
bX0 '
b0X (
#170000
0!
bX0 '
b0X (
#175000
1!
bX0 '
b0X (
#180000
0!
bX0 '
b0X (
#185000
1!
bX0 '
b0X (
#190000
0!
bX0 '
b0X (
#195000
1!
bX0 '
b0X (
#200000
0!
bX0 '
b0X (
#205000
1!
bX0 '
b0X (
#210000
0!
bX0 '
b0X (
#215000
1!
bX0 '
b0X (
#220000
0!
bX0 '
b0X (
#225000
1!
bX0 '
b0X (
#230000
0!
bX0 '
b0X (
#235000
1!
bX0 '
b0X (
#240000
0!
bX0 '
b0X (
#245000
1!
bX0 '
b0X (
#250000
0!
bX0 '
b0X (
#255000
1!
bX0 '
b0X (
#260000
0!
bX0 '
b0X (
#265000
1!
bX0 '
b0X (
#270000
0!
bX0 '
b0X (
#275000
1!
bX0 '
b0X (
#280000
0!
bX0 '
b0X (
#285000
1!
bX0 '
b0X (
#290000
0!
bX0 '
b0X (
#295000
1!
bX0 '
b0X (
#300000
0!
0#
bX0 '
b0X (
#305000
1!
bX0 '
b0X (
#310000
0!
bX0 '
b0X (
#315000
1!
bX0 '
b0X (
#320000
0!
bX0 '
b0X (
#325000
1!
bX0 '
b0X (
#330000
0!
bX0 '
b0X (
#335000
1!
bX0 '
b0X (
#340000
0!
bX0 '
b0X (
#345000
1!
b10000 %
b1111001 &
bX1 '
b100X (
#350000
0!
bX1 '
b100X (
#355000
1!
bX1 '
b100X (
#360000
0!
bX1 '
b100X (
#365000
1!
bX1 '
b100X (
#370000
0!
bX1 '
b100X (
#375000
1!
bX1 '
b100X (
#380000
0!
bX1 '
b100X (
#385000
1!
b0 %
bX1 '
b100X (
#390000
0!
bX1 '
b100X (
#395000
1!
bX1 '
b100X (
#400000
0!
bX1 '
b100X (
#405000
1!
bX1 '
b100X (
#410000
0!
bX1 '
b100X (
#415000
1!
bX1 '
b100X (
#420000
0!
bX1 '
b100X (
#425000
1!
b1111000 %
bX1 '
b11X (
#430000
0!
bX1 '
b11X (
#435000
1!
bX1 '
b11X (
#440000
0!
bX1 '
b11X (
#445000
1!
bX1 '
b11X (
#450000
0!
bX1 '
b11X (
#455000
1!
bX1 '
b11X (
#460000
0!
bX1 '
b11X (
#465000
1!
b10 %
bX1 '
b11X (
#470000
0!
bX1 '
b11X (
#475000
1!
bX1 '
b11X (
#480000
0!
bX1 '
b11X (
#485000
1!
bX1 '
b11X (
#490000
0!
bX1 '
b11X (
#495000
1!
bX1 '
b11X (
#500000
0!
bX1 '
b11X (
#505000
1!
b10010 %
bX1 '
b10X (
#510000
0!
bX1 '
b10X (
#515000
1!
bX1 '
b10X (
#520000
0!
bX1 '
b10X (
#525000
1!
bX1 '
b10X (
#530000
0!
bX1 '
b10X (
#535000
1!
bX1 '
b10X (
#540000
0!
bX1 '
b10X (
#545000
1!
b11001 %
bX1 '
b10X (
#550000
0!
bX1 '
b10X (
#555000
1!
bX1 '
b10X (
#560000
0!
bX1 '
b10X (
#565000
1!
bX1 '
b10X (
#570000
0!
bX1 '
b10X (
#575000
1!
bX1 '
b10X (
#580000
0!
bX1 '
b10X (
#585000
1!
b110000 %
bX1 '
b1X (
#590000
0!
bX1 '
b1X (
#595000
1!
bX1 '
b1X (
#600000
0!
bX1 '
b1X (
#605000
1!
bX1 '
b1X (
#610000
0!
bX1 '
b1X (
#615000
1!
bX1 '
b1X (
#620000
0!
bX1 '
b1X (
#625000
1!
b100100 %
bX1 '
b1X (
#630000
0!
bX1 '
b1X (
#635000
1!
bX1 '
b1X (
#640000
0!
bX1 '
b1X (
#645000
1!
bX1 '
b1X (
#650000
0!
bX1 '
b1X (
#655000
1!
bX1 '
b1X (
#660000
0!
bX1 '
b1X (
#665000
1!
b1111001 %
bX1 '
b0X (
#670000
0!
bX1 '
b0X (
#675000
1!
bX1 '
b0X (
#680000
0!
bX1 '
b0X (
#685000
1!
bX1 '
b0X (
#690000
0!
bX1 '
b0X (
#695000
1!
bX1 '
b0X (
#700000
0!
bX1 '
b0X (
#705000
1!
b1000000 %
bX1 '
b0X (
#710000
0!
bX1 '
b0X (
#715000
1!
bX1 '
b0X (
#720000
0!
bX1 '
b0X (
#725000
1!
bX1 '
b0X (
#730000
0!
bX1 '
b0X (
#735000
1!
bX1 '
b0X (
#740000
0!
bX1 '
b0X (
#745000
1!
b10000 %
b1000000 &
bX0 '
b100X (
#750000
0!
bX0 '
b100X (
#755000
1!
bX0 '
b100X (
#760000
0!
bX0 '
b100X (
#765000
1!
bX0 '
b100X (
#770000
0!
bX0 '
b100X (
#775000
1!
bX0 '
b100X (
#780000
0!
bX0 '
b100X (
#785000
1!
b0 %
bX0 '
b100X (
#790000
0!
bX0 '
b100X (
#795000
1!
bX0 '
b100X (
#800000
0!
bX0 '
b100X (
#805000
1!
bX0 '
b100X (
#810000
0!
bX0 '
b100X (
#815000
1!
bX0 '
b100X (
#820000
0!
bX0 '
b100X (
#825000
1!
b1111000 %
bX0 '
b11X (
#830000
0!
bX0 '
b11X (
#835000
1!
bX0 '
b11X (
#840000
0!
bX0 '
b11X (
#845000
1!
bX0 '
b11X (
#850000
0!
bX0 '
b11X (
#855000
1!
bX0 '
b11X (
#860000
0!
bX0 '
b11X (
#865000
1!
b10 %
bX0 '
b11X (
#870000
0!
bX0 '
b11X (
#875000
1!
bX0 '
b11X (
#880000
0!
bX0 '
b11X (
#885000
1!
bX0 '
b11X (
#890000
0!
bX0 '
b11X (
#895000
1!
bX0 '
b11X (
#900000
0!
bX0 '
b11X (
#905000
1!
b10010 %
bX0 '
b10X (
#910000
0!
bX0 '
b10X (
#915000
1!
bX0 '
b10X (
#920000
0!
bX0 '
b10X (
#925000
1!
bX0 '
b10X (
#930000
0!
bX0 '
b10X (
#935000
1!
bX0 '
b10X (
#940000
0!
bX0 '
b10X (
#945000
1!
b11001 %
bX0 '
b10X (
#950000
0!
bX0 '
b10X (
#955000
1!
bX0 '
b10X (
#960000
0!
bX0 '
b10X (
#965000
1!
bX0 '
b10X (
#970000
0!
bX0 '
b10X (
#975000
1!
bX0 '
b10X (
#980000
0!
bX0 '
b10X (
#985000
1!
b110000 %
bX0 '
b1X (
#990000
0!
bX0 '
b1X (
#995000
1!
bX0 '
b1X (
#1000000
0!
bX0 '
b1X (
#1005000
1!
bX0 '
b1X (
#1010000
0!
bX0 '
b1X (
#1015000
1!
bX0 '
b1X (
#1020000
0!
bX0 '
b1X (
#1025000
1!
b100100 %
bX0 '
b1X (
#1030000
0!
bX0 '
b1X (
#1035000
1!
bX0 '
b1X (
#1040000
0!
bX0 '
b1X (
#1045000
1!
bX0 '
b1X (
#1050000
0!
bX0 '
b1X (
#1055000
1!
bX0 '
b1X (
#1060000
0!
bX0 '
b1X (
#1065000
1!
b1111001 %
bX0 '
b0X (
#1070000
0!
bX0 '
b0X (
#1075000
1!
bX0 '
b0X (
#1080000
0!
bX0 '
b0X (
#1085000
1!
bX0 '
b0X (
#1090000
0!
bX0 '
b0X (
#1095000
1!
bX0 '
b0X (
#1100000
0!
bX0 '
b0X (
#1105000
1!
b1000000 %
bX0 '
b0X (
#1110000
0!
bX0 '
b0X (
#1115000
1!
0$
bX0 '
b0X (
#1120000
0!
bX0 '
b0X (
#1125000
1!
b100100 &
bX0 '
b0X (
#1130000
0!
bX0 '
b0X (
#1135000
1!
bX0 '
b0X (
#1140000
0!
bX0 '
b0X (
#1145000
1!
bX0 '
b0X (
#1150000
0!
bX0 '
b0X (
#1155000
1!
bX0 '
b0X (
#1160000
0!
bX0 '
b0X (
#1165000
1!
bX0 '
b0X (
#1170000
0!
bX0 '
b0X (
#1175000
1!
bX0 '
b0X (
#1180000
0!
bX0 '
b0X (
#1185000
1!
bX0 '
b0X (
#1190000
0!
bX0 '
b0X (
#1195000
1!
bX0 '
b0X (
#1200000
0!
bX0 '
b0X (
#1205000
1!
bX0 '
b0X (
#1210000
0!
bX0 '
b0X (
#1215000
1!
bX0 '
b0X (
#1220000
0!
bX0 '
b0X (
#1225000
1!
bX0 '
b0X (
#1230000
0!
bX0 '
b0X (
#1235000
1!
bX0 '
b0X (
#1240000
0!
bX0 '
b0X (
#1245000
1!
bX0 '
b0X (
#1250000
0!
bX0 '
b0X (
#1255000
1!
bX0 '
b0X (
#1260000
0!
bX0 '
b0X (
#1265000
1!
bX0 '
b0X (
#1270000
0!
bX0 '
b0X (
#1275000
1!
bX0 '
b0X (
#1280000
0!
bX0 '
b0X (
#1285000
1!
bX0 '
b0X (
#1290000
0!
bX0 '
b0X (
#1295000
1!
bX0 '
b0X (
#1300000
0!
bX0 '
b0X (
#1305000
1!
bX0 '
b0X (
#1310000
0!
bX0 '
b0X (
#1315000
1!
bX0 '
b0X (
#1320000
0!
bX0 '
b0X (
#1325000
1!
bX0 '
b0X (
#1330000
0!
bX0 '
b0X (
#1335000
1!
bX0 '
b0X (
#1340000
0!
bX0 '
b0X (
#1345000
1!
bX0 '
b0X (
#1350000
0!
bX0 '
b0X (
#1355000
1!
bX0 '
b0X (
#1360000
0!
bX0 '
b0X (
#1365000
1!
bX0 '
b0X (
#1370000
0!
bX0 '
b0X (
#1375000
1!
bX0 '
b0X (
#1380000
0!
bX0 '
b0X (
#1385000
1!
bX0 '
b0X (
#1390000
0!
bX0 '
b0X (
#1395000
1!
bX0 '
b0X (
#1400000
0!
bX0 '
b0X (
#1405000
1!
bX0 '
b0X (
#1410000
0!
bX0 '
b0X (
#1415000
1!
bX0 '
b0X (
#1420000
0!
bX0 '
b0X (
#1425000
1!
bX0 '
b0X (
#1430000
0!
bX0 '
b0X (
#1435000
1!
bX0 '
b0X (
#1440000
0!
bX0 '
b0X (
#1445000
1!
bX0 '
b0X (
#1450000
0!
bX0 '
b0X (
#1455000
1!
bX0 '
b0X (
#1460000
0!
bX0 '
b0X (
#1465000
1!
bX0 '
b0X (
#1470000
0!
bX0 '
b0X (
#1475000
1!
bX0 '
b0X (
#1480000
0!
bX0 '
b0X (
#1485000
1!
bX0 '
b0X (
#1490000
0!
bX0 '
b0X (
#1495000
1!
bX0 '
b0X (
#1500000
0!
bX0 '
b0X (
#1505000
1!
bX0 '
b0X (
#1510000
0!
bX0 '
b0X (
#1515000
1!
bX0 '
b0X (
#1520000
0!
bX0 '
b0X (
#1525000
1!
bX0 '
b0X (
#1530000
0!
bX0 '
b0X (
#1535000
1!
bX0 '
b0X (
#1540000
0!
bX0 '
b0X (
#1545000
1!
bX0 '
b0X (
#1550000
0!
bX0 '
b0X (
#1555000
1!
bX0 '
b0X (
#1560000
0!
bX0 '
b0X (
#1565000
1!
bX0 '
b0X (
#1570000
0!
bX0 '
b0X (
#1575000
1!
bX0 '
b0X (
#1580000
0!
bX0 '
b0X (
#1585000
1!
bX0 '
b0X (
#1590000
0!
bX0 '
b0X (
#1595000
1!
bX0 '
b0X (
#1600000
0!
bX0 '
b0X (
#1605000
1!
bX0 '
b0X (
#1610000
0!
bX0 '
b0X (
#1615000
1!
bX0 '
b0X (
#1620000
0!
bX0 '
b0X (
#1625000
1!
bX0 '
b0X (
#1630000
0!
bX0 '
b0X (
#1635000
1!
bX0 '
b0X (
#1640000
0!
bX0 '
b0X (
#1645000
1!
bX0 '
b0X (
#1650000
0!
bX0 '
b0X (
#1655000
1!
bX0 '
b0X (
#1660000
0!
bX0 '
b0X (
#1665000
1!
bX0 '
b0X (
#1670000
0!
bX0 '
b0X (
#1675000
1!
bX0 '
b0X (
#1680000
0!
bX0 '
b0X (
#1685000
1!
bX0 '
b0X (
#1690000
0!
bX0 '
b0X (
#1695000
1!
bX0 '
b0X (
#1700000
0!
bX0 '
b0X (
#1705000
1!
bX0 '
b0X (
#1710000
0!
bX0 '
b0X (
#1715000
1!
bX0 '
b0X (
#1720000
0!
bX0 '
b0X (
#1725000
1!
bX0 '
b0X (
#1730000
0!
bX0 '
b0X (
#1735000
1!
bX0 '
b0X (
#1740000
0!
bX0 '
b0X (
#1745000
1!
bX0 '
b0X (
#1750000
0!
bX0 '
b0X (
#1755000
1!
bX0 '
b0X (
#1760000
0!
bX0 '
b0X (
#1765000
1!
bX0 '
b0X (
#1770000
0!
bX0 '
b0X (
#1775000
1!
bX0 '
b0X (
#1780000
0!
bX0 '
b0X (
#1785000
1!
bX0 '
b0X (
#1790000
0!
bX0 '
b0X (
#1795000
1!
bX0 '
b0X (
#1800000
0!
bX0 '
b0X (
#1805000
1!
bX0 '
b0X (
#1810000
0!
bX0 '
b0X (
#1815000
1!
bX0 '
b0X (
#1820000
0!
bX0 '
b0X (
#1825000
1!
bX0 '
b0X (
#1830000
0!
bX0 '
b0X (
#1835000
1!
bX0 '
b0X (
#1840000
0!
bX0 '
b0X (
#1845000
1!
bX0 '
b0X (
#1850000
0!
bX0 '
b0X (
#1855000
1!
bX0 '
b0X (
#1860000
0!
bX0 '
b0X (
#1865000
1!
bX0 '
b0X (
#1870000
0!
bX0 '
b0X (
#1875000
1!
bX0 '
b0X (
#1880000
0!
bX0 '
b0X (
#1885000
1!
bX0 '
b0X (
#1890000
0!
bX0 '
b0X (
#1895000
1!
bX0 '
b0X (
#1900000
0!
bX0 '
b0X (
#1905000
1!
bX0 '
b0X (
#1910000
0!
bX0 '
b0X (
#1915000
1!
bX0 '
b0X (
#1920000
0!
bX0 '
b0X (
#1925000
1!
bX0 '
b0X (
#1930000
0!
bX0 '
b0X (
#1935000
1!
bX0 '
b0X (
#1940000
0!
bX0 '
b0X (
#1945000
1!
bX0 '
b0X (
#1950000
0!
bX0 '
b0X (
#1955000
1!
bX0 '
b0X (
#1960000
0!
bX0 '
b0X (
#1965000
1!
bX0 '
b0X (
#1970000
0!
bX0 '
b0X (
#1975000
1!
bX0 '
b0X (
#1980000
0!
bX0 '
b0X (
#1985000
1!
bX0 '
b0X (
#1990000
0!
bX0 '
b0X (
#1995000
1!
bX0 '
b0X (
#2000000
0!
bX0 '
b0X (
#2005000
1!
bX0 '
b0X (
#2010000
0!
bX0 '
b0X (
#2015000
1!
bX0 '
b0X (
#2020000
0!
bX0 '
b0X (
#2025000
1!
bX0 '
b0X (
#2030000
0!
bX0 '
b0X (
#2035000
1!
bX0 '
b0X (
#2040000
0!
bX0 '
b0X (
#2045000
1!
bX0 '
b0X (
#2050000
0!
bX0 '
b0X (
#2055000
1!
bX0 '
b0X (
#2060000
0!
bX0 '
b0X (
#2065000
1!
bX0 '
b0X (
#2070000
0!
bX0 '
b0X (
#2075000
1!
bX0 '
b0X (
#2080000
0!
bX0 '
b0X (
#2085000
1!
bX0 '
b0X (
#2090000
0!
bX0 '
b0X (
#2095000
1!
bX0 '
b0X (
#2100000
0!
bX0 '
b0X (
#2105000
1!
bX0 '
b0X (
#2110000
0!
bX0 '
b0X (
#2115000
1!
bX0 '
b0X (
#2120000
0!
bX0 '
b0X (
#2125000
1!
bX0 '
b0X (
#2130000
0!
bX0 '
b0X (
#2135000
1!
bX0 '
b0X (
#2140000
0!
bX0 '
b0X (
#2145000
1!
bX0 '
b0X (
#2150000
0!
bX0 '
b0X (
#2155000
1!
bX0 '
b0X (
#2160000
0!
bX0 '
b0X (
#2165000
1!
bX0 '
b0X (
#2170000
0!
bX0 '
b0X (
#2175000
1!
bX0 '
b0X (
#2180000
0!
bX0 '
b0X (
#2185000
1!
bX0 '
b0X (
#2190000
0!
bX0 '
b0X (
#2195000
1!
bX0 '
b0X (
#2200000
0!
bX0 '
b0X (
#2205000
1!
bX0 '
b0X (
#2210000
0!
bX0 '
b0X (
#2215000
1!
bX0 '
b0X (
#2220000
0!
bX0 '
b0X (
#2225000
1!
bX0 '
b0X (
#2230000
0!
bX0 '
b0X (
#2235000
1!
bX0 '
b0X (
#2240000
0!
bX0 '
b0X (
#2245000
1!
bX0 '
b0X (
#2250000
0!
bX0 '
b0X (
#2255000
1!
bX0 '
b0X (
#2260000
0!
bX0 '
b0X (
#2265000
1!
bX0 '
b0X (
#2270000
0!
bX0 '
b0X (
#2275000
1!
bX0 '
b0X (
#2280000
0!
bX0 '
b0X (
#2285000
1!
bX0 '
b0X (
#2290000
0!
bX0 '
b0X (
#2295000
1!
bX0 '
b0X (
#2300000
0!
bX0 '
b0X (
#2305000
1!
bX0 '
b0X (
#2310000
0!
bX0 '
b0X (
#2315000
1!
bX0 '
b0X (
#2320000
0!
bX0 '
b0X (
#2325000
1!
bX0 '
b0X (
#2330000
0!
bX0 '
b0X (
#2335000
1!
bX0 '
b0X (
#2340000
0!
bX0 '
b0X (
#2345000
1!
bX0 '
b0X (
#2350000
0!
bX0 '
b0X (
#2355000
1!
bX0 '
b0X (
#2360000
0!
bX0 '
b0X (
#2365000
1!
bX0 '
b0X (
#2370000
0!
bX0 '
b0X (
#2375000
1!
bX0 '
b0X (
#2380000
0!
bX0 '
b0X (
#2385000
1!
bX0 '
b0X (
#2390000
0!
bX0 '
b0X (
#2395000
1!
bX0 '
b0X (
#2400000
0!
bX0 '
b0X (
#2405000
1!
bX0 '
b0X (
#2410000
0!
bX0 '
b0X (
#2415000
1!
bX0 '
b0X (
#2420000
0!
bX0 '
b0X (
#2425000
1!
bX0 '
b0X (
#2430000
0!
bX0 '
b0X (
#2435000
1!
bX0 '
b0X (
#2440000
0!
bX0 '
b0X (
#2445000
1!
bX0 '
b0X (
#2450000
0!
bX0 '
b0X (
#2455000
1!
bX0 '
b0X (
#2460000
0!
bX0 '
b0X (
#2465000
1!
bX0 '
b0X (
#2470000
0!
bX0 '
b0X (
#2475000
1!
bX0 '
b0X (
#2480000
0!
bX0 '
b0X (
#2485000
1!
bX0 '
b0X (
#2490000
0!
bX0 '
b0X (
#2495000
1!
bX0 '
b0X (
